19 Lesson 4b: Handling text data | Data Wrangling with R
…
Use regular expressions to identify and manipulate patterns in character strings.

19.2 Prerequisites

The following packages will be used throughout this lesson. Base R contains many functions to work with strings but we’ll avoid them because they can be inconsistent, which makes them hard to remember. Instead we’ll use functions from stringr for text manipulation and we’ll also combine this with the use of dplyr for data frame manipulation.

library(dplyr)
library(stringr)

For data, we’ll leverage the completejourney data. For example, the products data within completejourney provides various variables (e.g. product_category and product_type) that contain character strings we may need to clean, normalize, or identify patterns within.

library(completejourney)

products
## # A tibble: 92,331 × 7
##    product_id manufacturer_id department    brand    product_category  product_type package_size
##    <chr>      <chr>           <chr>         <fct>    <chr>             <chr>        <chr>       
##  1 25671      2               GROCERY       National FRZN ICE          ICE - CRUSH… 22 LB       
##  2 26081      2               MISCELLANEOUS National <NA>              <NA>         <NA>        
##  3 26093      69              PASTRY        Private  BREAD             BREAD:ITALI… <NA>        
##  4 26190      69              GROCERY       Private  FRUIT - SHELF ST… APPLE SAUCE  50 OZ       
##  5 26355      69              GROCERY       Private  COOKIES/CONES     SPECIALTY C… 14 OZ       
##  6 26426      69              GROCERY       Private  SPICES & EXTRACTS SPICES & SE… 2.5 OZ      
##  7 26540      69              GROCERY       Private  COOKIES/CONES     TRAY PACK/C… 16 OZ       
##  8 26601      69              DRUG GM       Private  VITAMINS          VITAMIN - M… 300 CT(1)   
##  9 26636      69              PASTRY        Private  BREAKFAST SWEETS  SW GDS: SW … <NA>        
## 10 26691      16              GROCERY       Private  PNT BTR/JELLY/JA… HONEY        12 OZ       
## # … with 92,321 more rows
…
# force everything to lower case
str_to_lower(products$product_category) %>% head()
## [1] "frzn ice"             NA                     "bread"                "fruit - shelf stable"
## [5] "cookies/cones"        "spices & extracts"

# force everything to upper case
str_to_upper(products$product_category) %>% head()
## [1] "FRZN ICE"             NA                     "BREAD"                "FRUIT - SHELF STABLE"
## [5] "COOKIES/CONES"        "SPICES & EXTRACTS"

Typically we want to normalize text by converting everything to lower case but keep the data in our original data frame. We can combine str_ functions with dplyr::mutate to accomplish this:

products %>% mutate(product_category = str_to_lower(product_category))
## # A tibble: 92,331 × 7
##    product_id manufacturer_id department    brand    product_category  product_type package_size
##    <chr>      <chr>           <chr>         <fct>    <chr>             <chr>        <chr>       
##  1 25671      2               GROCERY       National frzn ice          ICE - CRUSH… 22 LB       
##  2 26081      2               MISCELLANEOUS National <NA>              <NA>         <NA>        
##  3 26093      69              PASTRY        Private  bread             BREAD:ITALI… <NA>        
##  4 26190      69              GROCERY       Private  fruit - shelf st… APPLE SAUCE  50 OZ       
##  5 26355      69              GROCERY       Private  cookies/cones     SPECIALTY C… 14 OZ       
##  6 26426      69              GROCERY       Private  spices & extracts SPICES & SE… 2.5 OZ      
##  7 26540      69              GROCERY       Private  cookies/cones     TRAY PACK/C… 16 OZ       
##  8 26601      69              DRUG GM       Private  vitamins          VITAMIN - M… 300 CT(1)   
##  9 26636      69              PASTRY        Private  breakfast sweets  SW GDS: SW … <NA>        
## 10 26691      16              GROCERY       Private  pnt btr/jelly/ja… HONEY        12 OZ       
## # … with 92,321 more rows
…
19.3.2 Counting characters

There may be times where we are interested in how many characters exist in a string. Whether you need to extract this information or filter for observations that exceed a certain character length you can use str_count to accomplish this:

# count number of characters in product_category
str_count(products$product_category) %>% head()
## [1]  8 NA  5 20 13 17

# create a new variable with character length
products %>% 
  mutate(category_length = str_count(product_category)) %>%
  select(product_category, category_length)
## # A tibble: 92,331 × 2
##    product_category     category_length
##    <chr>                          <int>
##  1 FRZN ICE                           8
##  2 <NA>                              NA
##  3 BREAD                              5
##  4 FRUIT - SHELF STABLE              20
##  5 COOKIES/CONES                     13
##  6 SPICES & EXTRACTS                 17
##  7 COOKIES/CONES                     13
##  8 VITAMINS                           8
##  9 BREAKFAST SWEETS                  16
## 10 PNT BTR/JELLY/JAMS                18
## # … with 92,321 more rows

# filter for product categories that are greater than the mean character length
products %>% 
   filter(str_count(product_category) > mean(str_count(product_category), na.rm = TRUE))
## # A tibble: 45,192 × 7
##    product_id manufacturer_id department brand   product_category      product_type package_size
##    <chr>      <chr>           <chr>      <fct>   <chr>                 <chr>        <chr>       
##  1 26190      69              GROCERY    Private FRUIT - SHELF STABLE  APPLE SAUCE  50 OZ       
##  2 26426      69              GROCERY    Private SPICES & EXTRACTS     SPICES & SE… 2.5 OZ      
##  3 26636      69              PASTRY     Private BREAKFAST SWEETS      SW GDS: SW … <NA>        
##  4 26691      16              GROCERY    Private PNT BTR/JELLY/JAMS    HONEY        12 OZ       
##  5 26738      69              GROCERY    Private ICE CREAM/MILK/SHERB… TRADITIONAL  56 OZ       
##  6 26941      69              GROCERY    Private ICE CREAM/MILK/SHERB… TRADITIONAL  56 OZ       
##  7 27030      69              GROCERY    Private ICE CREAM/MILK/SHERB… TRADITIONAL  56 OZ       
##  8 27152      69              GROCERY    Private SPICES & EXTRACTS     SPICES & SE… 4 OZ        
##  9 27158      69              GROCERY    Private ICE CREAM/MILK/SHERB… TRADITIONAL  56 OZ       
## 10 27334      69              DRUG GM    Private DIETARY AID PRODUCTS  DIET CNTRL … <NA>        
## # … with 45,182 more rows

19.3.3 Extracting parts of character strings

If you need to extract parts of a character string you can use str_sub. By default start = 1 and end = 3 will tell the function to extract the first through third characters. If you want to start from the right side of the string then negative numbers such as start = -1 and end = -5 will tell the function to extract the last five characters.

# extract parts of a string (example: extract first three characters)
str_sub(products$product_category, start = 1, end = 3) %>% head()
## [1] "FRZ" NA    "BRE" "FRU" "COO" "SPI"

# create new variable for last five characters
products %>%
  select(product_category) %>%
  mutate(last_five = str_sub(product_category, start = -5, end = -1))
## # A tibble: 92,331 × 2
##    product_category     last_five
##    <chr>                <chr>    
##  1 FRZN ICE             N ICE    
##  2 <NA>                 <NA>     
##  3 BREAD                BREAD    
##  4 FRUIT - SHELF STABLE TABLE    
##  5 COOKIES/CONES        CONES    
##  6 SPICES & EXTRACTS    RACTS    
##  7 COOKIES/CONES        CONES    
##  8 VITAMINS             AMINS    
##  9 BREAKFAST SWEETS     WEETS    
## 10 PNT BTR/JELLY/JAMS   /JAMS    
## # … with 92,321 more rows
…
str_* represents a wide variety of regex functions depending on what you want to do,

string represents the character string of concern (i.e. products$product_category),

pattern represents the regex pattern you are looking to match.

For example let’s say you are looking for observations where the word “FRUIT” was used in the product_category description. str_detect detects the presence or absence of a pattern (“FRUIT” in this example) and returns a logical vector. Since the output is TRUE or FALSE, this is a handy function to combine with filter to filter for observations that have that pattern.

# detect if the word "FRUIT" is used in each product category description
str_detect(products$product_category, "FRUIT") %>% head()
## [1] FALSE    NA FALSE  TRUE FALSE FALSE

# filter for those observations that include the use of "FRUIT"
products %>% filter(str_detect(product_category, "FRUIT"))
## # A tibble: 1,153 × 7
##    product_id manufacturer_id department brand    product_category     product_type package_size
##    <chr>      <chr>           <chr>      <fct>    <chr>                <chr>        <chr>       
##  1 26190      69              GROCERY    Private  FRUIT - SHELF STABLE APPLE SAUCE  50 OZ       
##  2 27503      69              GROCERY    Private  FRUIT - SHELF STABLE CRANBERRY S… 16 OZ       
##  3 27960      69              GROCERY    Private  FRZN FRUITS          FROZEN FRUIT 16 OZ       
##  4 33048      5820            PRODUCE    National ORGANICS FRUIT & VE… ORGANIC CIT… 2 LB BAG    
##  5 37543      876             NUTRITION  National DRIED FRUIT          RAISINS      24 OZ       
##  6 44599      69              GROCERY    Private  FRUIT - SHELF STABLE FRUIT COCKT… 15.25 OZ    
##  7 45218      69              GROCERY    Private  FRUIT - SHELF STABLE PEARS        15.25 OZ    
##  8 45607      69              GROCERY    Private  FRUIT - SHELF STABLE PINEAPPLE    8 OZ        
##  9 49748      69              GROCERY    Private  FRUIT - SHELF STABLE MANDARIN OR… 15 OZ       
## 10 49930      2               PRODUCE    National STONE FRUIT          PEACHES YEL… <NA>        
## # … with 1,143 more rows
…
The patterns used in the str_ functions are case
sensitive but you can use regex to control options
(i.e. str_count(products$product_category, regex(“frzn”, ignore_case = TRUE))).

19.4.2 Multiple Words

In the previous section you saw that you can search for a given word using any of the str_ functions. We can build onto this and search for multiple words. For example, you can search for multiple phrases to identify seasonal products. Say you wanted to identify all products targeting summer or fall, rather than search for these words in separate str_detect() calls…

# filter for summer or fall items
products %>% 
   filter(
      str_detect(product_category, regex("summer", ignore_case = TRUE)) |
      str_detect(product_category, regex("fall", ignore_case = TRUE))   
   )
## # A tibble: 651 × 7
##    product_id manufacturer_id department brand    product_category     product_type package_size
##    <chr>      <chr>           <chr>      <fct>    <chr>                <chr>        <chr>       
##  1 37073      69              DRUG GM    Private  SPRING/SUMMER SEASO… GRILL ACCES… <NA>        
##  2 91614      1277            DRUG GM    National SPRING/SUMMER SEASO… DISPOSABLE … 3 CT        
##  3 99090      1277            DRUG GM    National SPRING/SUMMER SEASO… DISPOSABLE … 2 CT        
##  4 99172      1277            DRUG GM    National SPRING/SUMMER SEASO… DISPOSABLE … 2 CT        
##  5 106668     1277            DRUG GM    National SPRING/SUMMER SEASO… DISPOSABLE … <NA>        
##  6 182402     2160            DRUG GM    National SPRING/SUMMER SEASO… COOLERS      28 QT       
##  7 276046     1277            DRUG GM    National SPRING/SUMMER SEASO… DISPOSABLE … <NA>        
##  8 461689     5759            DRUG GM    National SPRING/SUMMER SEASO… MISC HOLIDA… <NA>        
##  9 504050     1277            DRUG GM    National SPRING/SUMMER SEASO… DISPOSABLE … <NA>        
## 10 555735     1277            DRUG GM    National SPRING/SUMMER SEASO… DISPOSABLE … <NA>        
## # … with 641 more rows

We can simply search for observations that include the words “summer” or “fall” within a single str_detect() call by using | between the search terms, which is equivalent to an or statement.

products %>% 
   filter(str_detect(product_category, regex("summer|fall", ignore_case = TRUE)))
## # A tibble: 651 × 7
##    product_id manufacturer_id department brand    product_category     product_type package_size
##    <chr>      <chr>           <chr>      <fct>    <chr>                <chr>        <chr>       
##  1 37073      69              DRUG GM    Private  SPRING/SUMMER SEASO… GRILL ACCES… <NA>        
##  2 91614      1277            DRUG GM    National SPRING/SUMMER SEASO… DISPOSABLE … 3 CT        
##  3 99090      1277            DRUG GM    National SPRING/SUMMER SEASO… DISPOSABLE … 2 CT        
##  4 99172      1277            DRUG GM    National SPRING/SUMMER SEASO… DISPOSABLE … 2 CT        
##  5 106668     1277            DRUG GM    National SPRING/SUMMER SEASO… DISPOSABLE … <NA>        
##  6 182402     2160            DRUG GM    National SPRING/SUMMER SEASO… COOLERS      28 QT       
##  7 276046     1277            DRUG GM    National SPRING/SUMMER SEASO… DISPOSABLE … <NA>        
##  8 461689     5759            DRUG GM    National SPRING/SUMMER SEASO… MISC HOLIDA… <NA>        
##  9 504050     1277            DRUG GM    National SPRING/SUMMER SEASO… DISPOSABLE … <NA>        
## 10 555735     1277            DRUG GM    National SPRING/SUMMER SEASO… DISPOSABLE … <NA>        
## # … with 641 more rows

19.4.3 Line anchors

Line anchors are used to identify patterns at the beginning or end of an element. To find a pattern at the beginning of the element we use ^ and a pattern at the end of the element is found with $. For example, if you wanted to find any observations with the word “fruit” in the product_category column we can use the following:

# contains "juice"
products %>% 
   filter(str_detect(product_category, regex("fruit", ignore_case = TRUE)))
## # A tibble: 1,153 × 7
##    product_id manufacturer_id department brand    product_category     product_type package_size
##    <chr>      <chr>           <chr>      <fct>    <chr>                <chr>        <chr>       
##  1 26190      69              GROCERY    Private  FRUIT - SHELF STABLE APPLE SAUCE  50 OZ       
##  2 27503      69              GROCERY    Private  FRUIT - SHELF STABLE CRANBERRY S… 16 OZ       
##  3 27960      69              GROCERY    Private  FRZN FRUITS          FROZEN FRUIT 16 OZ       
##  4 33048      5820            PRODUCE    National ORGANICS FRUIT & VE… ORGANIC CIT… 2 LB BAG    
##  5 37543      876             NUTRITION  National DRIED FRUIT          RAISINS      24 OZ       
##  6 44599      69              GROCERY    Private  FRUIT - SHELF STABLE FRUIT COCKT… 15.25 OZ    
##  7 45218      69              GROCERY    Private  FRUIT - SHELF STABLE PEARS        15.25 OZ    
##  8 45607      69              GROCERY    Private  FRUIT - SHELF STABLE PINEAPPLE    8 OZ        
##  9 49748      69              GROCERY    Private  FRUIT - SHELF STABLE MANDARIN OR… 15 OZ       
## 10 49930      2               PRODUCE    National STONE FRUIT          PEACHES YEL… <NA>        
## # … with 1,143 more rows

However, if we only wanted those products where the category starts with “fruit” than we can use the ^ anchor:

# starts with "fruit"
products %>% 
   filter(str_detect(product_category, regex("^fruit", ignore_case = TRUE)))
## # A tibble: 396 × 7
##    product_id manufacturer_id department brand    product_category     product_type package_size
##    <chr>      <chr>           <chr>      <fct>    <chr>                <chr>        <chr>       
##  1 26190      69              GROCERY    Private  FRUIT - SHELF STABLE APPLE SAUCE  50 OZ       
##  2 27503      69              GROCERY    Private  FRUIT - SHELF STABLE CRANBERRY S… 16 OZ       
##  3 44599      69              GROCERY    Private  FRUIT - SHELF STABLE FRUIT COCKT… 15.25 OZ    
##  4 45218      69              GROCERY    Private  FRUIT - SHELF STABLE PEARS        15.25 OZ    
##  5 45607      69              GROCERY    Private  FRUIT - SHELF STABLE PINEAPPLE    8 OZ        
##  6 49748      69              GROCERY    Private  FRUIT - SHELF STABLE MANDARIN OR… 15 OZ       
##  7 52240      69              GROCERY    Private  FRUIT - SHELF STABLE FRUIT COCKT… 15 OZ       
##  8 53854      170             GROCERY    National FRUIT - SHELF STABLE FRUIT BOWL … 4 OZ        
##  9 54776      69              GROCERY    Private  FRUIT - SHELF STABLE FRUIT COCKT… 15 OZ       
## 10 58782      170             GROCERY    National FRUIT - SHELF STABLE FRUIT BOWL … 6/3.9 OZ    
## # … with 386 more rows

Alternatively, if we only wanted those products where the category ends with “fruit” than we can use the $ anchor:

# starts with "fruit"
products %>% 
   filter(str_detect(product_category, regex("fruit$", ignore_case = TRUE)))
## # A tibble: 398 × 7
##    product_id manufacturer_id department brand    product_category product_type     package_size
##    <chr>      <chr>           <chr>      <fct>    <chr>            <chr>            <chr>       
##  1 37543      876             NUTRITION  National DRIED FRUIT      RAISINS          24 OZ       
##  2 49930      2               PRODUCE    National STONE FRUIT      PEACHES YELLOW … <NA>        
##  3 54460      69              NUTRITION  Private  DRIED FRUIT      RAISINS          24 OZ BAG   
##  4 64583      2               PRODUCE    National TROPICAL FRUIT   TROPICAL FRUIT … CTN         
##  5 71432      876             NUTRITION  National DRIED FRUIT      DRIED FRUIT - O… 7 OZ        
##  6 71792      876             NUTRITION  National DRIED FRUIT      DRIED FRUIT - O… 7 OZ        
##  7 78306      612             NUTRITION  National DRIED FRUIT      DRIED FRUIT - O… 6 OZ        
##  8 84804      612             NUTRITION  National DRIED FRUIT      DRIED FRUIT - O… 6 OZ        
##  9 119875     1587            NUTRITION  National DRIED FRUIT      DRIED FRUIT - O… 6 OZ        
## 10 136217     2               PRODUCE    National STONE FRUIT      CHERRIES RED     2 LB        
## # … with 388 more rows

And we can combine the two if we only wanted those products where the category starts or ends with “fruit”:

# starts with "fruit"
products %>% 
   filter(str_detect(product_category, regex("^fruit|fruit$", ignore_case = TRUE)))
## # A tibble: 794 × 7
##    product_id manufacturer_id department brand    product_category     product_type package_size
##    <chr>      <chr>           <chr>      <fct>    <chr>                <chr>        <chr>       
##  1 26190      69              GROCERY    Private  FRUIT - SHELF STABLE APPLE SAUCE  50 OZ       
##  2 27503      69              GROCERY    Private  FRUIT - SHELF STABLE CRANBERRY S… 16 OZ       
##  3 37543      876             NUTRITION  National DRIED FRUIT          RAISINS      24 OZ       
##  4 44599      69              GROCERY    Private  FRUIT - SHELF STABLE FRUIT COCKT… 15.25 OZ    
##  5 45218      69              GROCERY    Private  FRUIT - SHELF STABLE PEARS        15.25 OZ    
##  6 45607      69              GROCERY    Private  FRUIT - SHELF STABLE PINEAPPLE    8 OZ        
##  7 49748      69              GROCERY    Private  FRUIT - SHELF STABLE MANDARIN OR… 15 OZ       
##  8 49930      2               PRODUCE    National STONE FRUIT          PEACHES YEL… <NA>        
##  9 52240      69              GROCERY    Private  FRUIT - SHELF STABLE FRUIT COCKT… 15 OZ       
## 10 53854      170             GROCERY    National FRUIT - SHELF STABLE FRUIT BOWL … 4 OZ        
## # … with 784 more rows
…
