11 Lesson 3b: Data transformation | Data Wrangling with R
…
11.2 Prerequisites

Load the dplyr package to provide you access to the functions we’ll cover in this lesson.

library(dplyr)

Alternatively, you could load the tidyverse package,
which automatically loads the dplyr package.

To illustrate various transformation tasks we will use the following customer transaction data from the completejourney package:

library(completejourney)

(df <- transactions_sample)
## # A tibble: 75,000 × 11
##    household_id store_id basket_id   product_id quantity
##    <chr>        <chr>    <chr>       <chr>         <dbl>
##  1 2261         309      31625220889 940996            1
##  2 2131         368      32053127496 873902            1
##  3 511          316      32445856036 847901            1
##  4 400          388      31932241118 13094913          2
##  5 918          340      32074655895 1085604           1
##  6 718          324      32614612029 883203            1
##  7 868          323      32074722463 9884484           1
##  8 1688         450      34850403304 1028715           1
##  9 467          31782    31280745102 896613            2
## 10 1947         32004    32744181707 978497            1
## # ℹ 74,990 more rows
## # ℹ 6 more variables: sales_value <dbl>,
## #   retail_disc <dbl>, coupon_disc <dbl>,
## #   coupon_match_disc <dbl>, week <int>,
## #   transaction_timestamp <dttm>

11.3 Filtering observations

Filtering data is a common task to identify and select observations in which a particular variable matches a specific value or condition. The filter() function provides this capability. The first argument is the name of the data frame. The second and subsequent arguments are the expressions that filter the data frame. For example, if we want to filter for only transactions at the store with ID 309:

filter(df, store_id == "309")
## # A tibble: 426 × 11
##    household_id store_id basket_id   product_id quantity
##    <chr>        <chr>    <chr>       <chr>         <dbl>
##  1 2261         309      31625220889 940996            1
##  2 519          309      32931585175 1029743           1
##  3 1073         309      40532931248 1058997           1
##  4 517          309      32989806742 5590158           1
##  5 1023         309      35713891195 15596520          1
##  6 1770         309      32505226867 12263600          1
##  7 1257         309      33983222000 999090            1
##  8 1509         309      32090471323 1016800           2
##  9 1167         309      34103947117 1037417           1
## 10 1836         309      40532932017 879008            1
## # ℹ 416 more rows
## # ℹ 6 more variables: sales_value <dbl>,
## #   retail_disc <dbl>, coupon_disc <dbl>,
## #   coupon_match_disc <dbl>, week <int>,
## #   transaction_timestamp <dttm>

You can pipe data into the filter function using the following
syntax: df %>% filter(store_id == “309”)

When you run that line of code, dplyr executes the filtering operation and returns a new data frame. dplyr functions never modify their inputs, so if you want to save the result, you’ll need to use the assignment operator, <-:

store_309 <- filter(df, store_id == "309")
store_309
## # A tibble: 426 × 11
##    household_id store_id basket_id   product_id quantity
##    <chr>        <chr>    <chr>       <chr>         <dbl>
##  1 2261         309      31625220889 940996            1
##  2 519          309      32931585175 1029743           1
##  3 1073         309      40532931248 1058997           1
##  4 517          309      32989806742 5590158           1
##  5 1023         309      35713891195 15596520          1
##  6 1770         309      32505226867 12263600          1
##  7 1257         309      33983222000 999090            1
##  8 1509         309      32090471323 1016800           2
##  9 1167         309      34103947117 1037417           1
## 10 1836         309      40532932017 879008            1
## # ℹ 416 more rows
## # ℹ 6 more variables: sales_value <dbl>,
## #   retail_disc <dbl>, coupon_disc <dbl>,
## #   coupon_match_disc <dbl>, week <int>,
## #   transaction_timestamp <dttm>
…
A useful shortcut for writing multiple or statements is to use %in%. For example, the following code finds all transactions made at store 309 or 400.

filter(df, store_id == "309" | store_id == "400")
## # A tibble: 1,203 × 11
##    household_id store_id basket_id   product_id quantity
##    <chr>        <chr>    <chr>       <chr>         <dbl>
##  1 2261         309      31625220889 940996            1
##  2 1113         400      34204801923 998119            1
##  3 519          309      32931585175 1029743           1
##  4 1946         400      41352204380 1120213           3
##  5 709          400      40911786843 923559            1
##  6 725          400      33106940650 1000664           1
##  7 1662         400      34258865155 1114465           2
##  8 1662         400      32065200596 1085939           1
##  9 1957         400      34338650191 933835            1
## 10 1925         400      34133653463 13072776          1
## # ℹ 1,193 more rows
## # ℹ 6 more variables: sales_value <dbl>,
## #   retail_disc <dbl>, coupon_disc <dbl>,
## #   coupon_match_disc <dbl>, week <int>,
## #   transaction_timestamp <dttm>

The %in% operator allows us to select every row where x is one of the values in y. We could use it to rewrite the code above as:

filter(df, store_id %in% c("309", "400"))
## # A tibble: 1,203 × 11
##    household_id store_id basket_id   product_id quantity
##    <chr>        <chr>    <chr>       <chr>         <dbl>
##  1 2261         309      31625220889 940996            1
##  2 1113         400      34204801923 998119            1
##  3 519          309      32931585175 1029743           1
##  4 1946         400      41352204380 1120213           3
##  5 709          400      40911786843 923559            1
##  6 725          400      33106940650 1000664           1
##  7 1662         400      34258865155 1114465           2
##  8 1662         400      32065200596 1085939           1
##  9 1957         400      34338650191 933835            1
## 10 1925         400      34133653463 13072776          1
## # ℹ 1,193 more rows
## # ℹ 6 more variables: sales_value <dbl>,
## #   retail_disc <dbl>, coupon_disc <dbl>,
## #   coupon_match_disc <dbl>, week <int>,
## #   transaction_timestamp <dttm>
…
11.4 Selecting variables

It’s not uncommon for us to use data sets with hundreds of variables. In this case, the first challenge is often narrowing in on the variables you’re actually interested in. select allows you to rapidly zoom in on a useful subset using operations based on the names of the variables.

select is not terribly useful with our transaction data because we only have 8 variables, but you can still get the general idea:

# Select columns by name
select(df, household_id, store_id, sales_value)
## # A tibble: 75,000 × 3
##    household_id store_id sales_value
##    <chr>        <chr>          <dbl>
##  1 2261         309             3.86
##  2 2131         368             1.59
##  3 511          316             1   
##  4 400          388            11.9 
##  5 918          340             1.29
##  6 718          324             2.5 
##  7 868          323             3.49
##  8 1688         450             2   
##  9 467          31782           6.55
## 10 1947         32004           3.99
## # ℹ 74,990 more rows

# Select all columns between household_id and sales_value (inclusive)
select(df, household_id:sales_value)
## # A tibble: 75,000 × 6
##    household_id store_id basket_id   product_id quantity
##    <chr>        <chr>    <chr>       <chr>         <dbl>
##  1 2261         309      31625220889 940996            1
##  2 2131         368      32053127496 873902            1
##  3 511          316      32445856036 847901            1
##  4 400          388      31932241118 13094913          2
##  5 918          340      32074655895 1085604           1
##  6 718          324      32614612029 883203            1
##  7 868          323      32074722463 9884484           1
##  8 1688         450      34850403304 1028715           1
##  9 467          31782    31280745102 896613            2
## 10 1947         32004    32744181707 978497            1
## # ℹ 74,990 more rows
## # ℹ 1 more variable: sales_value <dbl>

# Select all columns except those between household_id and sales_value
select(df, -c(household_id:sales_value))
## # A tibble: 75,000 × 5
##    retail_disc coupon_disc coupon_match_disc  week
##          <dbl>       <dbl>             <dbl> <int>
##  1        0.43           0                 0     5
##  2        0.9            0                 0    10
##  3        0.69           0                 0    13
##  4        2.9            0                 0     8
##  5        0              0                 0    10
##  6        0.49           0                 0    15
##  7        0              0                 0    10
##  8        1.79           0                 0    33
##  9        4.44           0                 0     2
## 10        0              0                 0    16
## # ℹ 74,990 more rows
## # ℹ 1 more variable: transaction_timestamp <dttm>
…
ends_with("xyz"): matches names that end with “xyz”.

contains("ijk"): matches names that contain “ijk”.

matches("(.)\\1"): selects variables that match a regular expression. This one matches any variables that contain repeated characters. You’ll learn more about regular expressions in the character strings chapter.

num_range("x", 1:3): matches x1, x2 and x3.

See ?select for more details.

For example, we can select all variables that contain “id” in their name:

select(df, contains("id"))
## # A tibble: 75,000 × 4
##    household_id store_id basket_id   product_id
##    <chr>        <chr>    <chr>       <chr>     
##  1 2261         309      31625220889 940996    
##  2 2131         368      32053127496 873902    
##  3 511          316      32445856036 847901    
##  4 400          388      31932241118 13094913  
##  5 918          340      32074655895 1085604   
##  6 718          324      32614612029 883203    
##  7 868          323      32074722463 9884484   
##  8 1688         450      34850403304 1028715   
##  9 467          31782    31280745102 896613    
## 10 1947         32004    32744181707 978497    
## # ℹ 74,990 more rows

select can be used to rename variables, but it’s rarely useful because it drops all of the variables not explicitly mentioned. Instead, use rename, which is a variant of select that keeps all the variables that aren’t explicitly mentioned:

rename(df, store = store_id, product = product_id)
## # A tibble: 75,000 × 11
##    household_id store basket_id   product  quantity
##    <chr>        <chr> <chr>       <chr>       <dbl>
##  1 2261         309   31625220889 940996          1
##  2 2131         368   32053127496 873902          1
##  3 511          316   32445856036 847901          1
##  4 400          388   31932241118 13094913        2
##  5 918          340   32074655895 1085604         1
##  6 718          324   32614612029 883203          1
##  7 868          323   32074722463 9884484         1
##  8 1688         450   34850403304 1028715         1
##  9 467          31782 31280745102 896613          2
## 10 1947         32004 32744181707 978497          1
## # ℹ 74,990 more rows
## # ℹ 6 more variables: sales_value <dbl>,
## #   retail_disc <dbl>, coupon_disc <dbl>,
## #   coupon_match_disc <dbl>, week <int>,
## #   transaction_timestamp <dttm>

Another option is to use select in conjunction with the everything helper. This is useful if you have a handful of variables you’d like to move to the start of the data frame.

select(df, household_id, quantity, sales_value, everything())
## # A tibble: 75,000 × 11
##    household_id quantity sales_value store_id basket_id 
##    <chr>           <dbl>       <dbl> <chr>    <chr>     
##  1 2261                1        3.86 309      316252208…
##  2 2131                1        1.59 368      320531274…
##  3 511                 1        1    316      324458560…
##  4 400                 2       11.9  388      319322411…
##  5 918                 1        1.29 340      320746558…
##  6 718                 1        2.5  324      326146120…
##  7 868                 1        3.49 323      320747224…
##  8 1688                1        2    450      348504033…
##  9 467                 2        6.55 31782    312807451…
## 10 1947                1        3.99 32004    327441817…
## # ℹ 74,990 more rows
## # ℹ 6 more variables: product_id <chr>,
## #   retail_disc <dbl>, coupon_disc <dbl>,
## #   coupon_match_disc <dbl>, week <int>,
## #   transaction_timestamp <dttm>
…
Figure 11.2: Summarize functions need to condense a vector input down to a single summarized output value.

summarize is not terribly useful unless we pair it with another function called group_by. This changes the unit of analysis from the complete data set to individual groups. Then, when you use the dplyr verbs on a grouped data frame they’ll be automatically applied “by group”. For example, if we applied exactly the same code to a data frame grouped by store_id, we get the average sales value for each store_id level:

by_store <- group_by(df, store_id)
summarize(by_store, avg_sales_value = mean(sales_value))
## # A tibble: 293 × 2
##    store_id avg_sales_value
##    <chr>              <dbl>
##  1 108                14.0 
##  2 1089                1   
##  3 1098                2.28
##  4 1102                1.17
##  5 112                 1.39
##  6 1132                0.71
##  7 1240                1   
##  8 1247                0.39
##  9 1252                0.99
## 10 134                 1.89
## # ℹ 283 more rows

A more efficient way to write this same code is to use the pipe operator:

df %>%
  group_by(store_id) %>%
  summarize(avg_sales_value = mean(sales_value))
## # A tibble: 293 × 2
##    store_id avg_sales_value
##    <chr>              <dbl>
##  1 108                14.0 
##  2 1089                1   
##  3 1098                2.28
##  4 1102                1.17
##  5 112                 1.39
##  6 1132                0.71
##  7 1240                1   
##  8 1247                0.39
##  9 1252                0.99
## 10 134                 1.89
## # ℹ 283 more rows

We can compute multiple summary statistics:

df %>%
  group_by(store_id) %>%
  summarize(
    `10%` = quantile(sales_value, .1),
    `50%` = quantile(sales_value, .5),
    avg_sales_value = mean(sales_value),
    `90%` = quantile(sales_value, .9),
    sd = sd(sales_value),
    n()
    )
## # A tibble: 293 × 7
##    store_id `10%`  `50%` avg_sales_value `90%`     sd
##    <chr>    <dbl>  <dbl>           <dbl> <dbl>  <dbl>
##  1 108      14.0  14.0             14.0  14.0   0    
##  2 1089      1     1                1     1    NA    
##  3 1098      2.28  2.28             2.28  2.28 NA    
##  4 1102      0.55  0.825            1.17  2.07  0.916
##  5 112       0.94  1.09             1.39  2.13  0.652
##  6 1132      0.39  0.39             0.71  1.35  0.716
##  7 1240      1     1                1     1    NA    
##  8 1247      0.39  0.39             0.39  0.39 NA    
##  9 1252      0.99  0.99             0.99  0.99 NA    
## 10 134       1.89  1.89             1.89  1.89 NA    
## # ℹ 283 more rows
## # ℹ 1 more variable: `n()` <int>

There are additional summarize alternative functions that are quite useful. Test these out and see how they work:

# compute the average for multiple specified variables
df %>% summarize_at(c("sales_value", "quantity"), mean) 

# compute the average for all numeric variables
df %>% summarize_if(is.numeric, mean) 

summarize is a very universal function that can be used on continuous and categorical variables; however, count is a great function to use to compute the number of observations for each level of a categorical variable (or a combination of categorical variables):

# number of observations in each level of store_id
count(df, store_id)
## # A tibble: 293 × 2
##    store_id     n
##    <chr>    <int>
##  1 108          2
##  2 1089         1
##  3 1098         1
##  4 1102         4
##  5 112          6
##  6 1132         5
##  7 1240         1
##  8 1247         1
##  9 1252         1
## 10 134          1
## # ℹ 283 more rows

# number of observations in each level of store_id and sort output
count(df, store_id, sort = TRUE)
## # A tibble: 293 × 2
##    store_id     n
##    <chr>    <int>
##  1 367       2129
##  2 406       1634
##  3 356       1386
##  4 292       1333
##  5 31782     1238
##  6 343       1220
##  7 381       1211
##  8 361       1149
##  9 32004     1128
## 10 321       1106
## # ℹ 283 more rows

# number of observations in each combination of sort_id & product_id
count(df, store_id, product_id, sort = TRUE)
## # A tibble: 63,652 × 3
##    store_id product_id     n
##    <chr>    <chr>      <int>
##  1 367      1082185       34
##  2 375      6534178       33
##  3 422      6534178       33
##  4 429      6534178       32
##  5 343      6534178       28
##  6 406      6534178       28
##  7 367      6534178       24
##  8 361      6534178       23
##  9 406      1082185       23
## 10 31862    1082185       21
## # ℹ 63,642 more rows
…
11.6 Sorting observations

Often, we desire to view observations in rank order for a particular variable(s). The arrange function allows us to order data by variables in ascending or descending order. For example, we can sort our observations based on sales_value:

# default is ascending order
arrange(df, sales_value)
## # A tibble: 75,000 × 11
##    household_id store_id basket_id   product_id quantity
##    <chr>        <chr>    <chr>       <chr>         <dbl>
##  1 1038         340      31389956808 983659            0
##  2 1166         408      31969185576 5978656           0
##  3 1397         381      40800715180 8020001           0
##  4 1889         369      33433310971 903325            0
##  5 1241         368      31834162699 7441102           0
##  6 867          369      40436331223 5978656           0
##  7 2204         367      33397465730 887782            0
##  8 40           406      40085429046 5978648           0
##  9 1100         358      41125111338 976199            0
## 10 1829         445      33655105183 1014948           1
## # ℹ 74,990 more rows
## # ℹ 6 more variables: sales_value <dbl>,
## #   retail_disc <dbl>, coupon_disc <dbl>,
## #   coupon_match_disc <dbl>, week <int>,
## #   transaction_timestamp <dttm>

# use desc() for descending order
arrange(df, desc(sales_value))
## # A tibble: 75,000 × 11
##    household_id store_id basket_id   product_id quantity
##    <chr>        <chr>    <chr>       <chr>         <dbl>
##  1 1246         334      32005986123 12484608          1
##  2 2318         381      31993236318 13040176          1
##  3 1172         396      34338411595 15630122          1
##  4 1959         736      33510101062 5716076       30080
##  5 1959         323      34811925575 6544236       26325
##  6 2133         433      35727256342 6534178       32623
##  7 1764         327      33971056246 6534178       24583
##  8 1959         384      34103546818 6544236       23519
##  9 2312         442      41351830986 916561            1
## 10 2360         323      35463937998 12812261          8
## # ℹ 74,990 more rows
## # ℹ 6 more variables: sales_value <dbl>,
## #   retail_disc <dbl>, coupon_disc <dbl>,
## #   coupon_match_disc <dbl>, week <int>,
## #   transaction_timestamp <dttm>
…
