16 Lesson 4c: Handling dates & times | Data Wrangling with R
…
16.4.2 Create dates by merging data

Sometimes parts of your date-time are collected in separate elements/columns. For example, in the following data that comes from a data frame supplied by the nycflights13 package, the year, month, day, hour, and minute values are all separated into their own columns.

library(nycflights13)

flights %>% 
  select(year, month, day, hour, minute)
## # A tibble: 336,776 × 5
##     year month   day  hour minute
##    <int> <int> <int> <dbl>  <dbl>
##  1  2013     1     1     5     15
##  2  2013     1     1     5     29
##  3  2013     1     1     5     40
##  4  2013     1     1     5     45
##  5  2013     1     1     6      0
##  6  2013     1     1     5     58
##  7  2013     1     1     6      0
##  8  2013     1     1     6      0
##  9  2013     1     1     6      0
## 10  2013     1     1     6      0
## # … with 336,766 more rows

To create a date-time value from this sort of input, use make_date() for dates and make_datetime() for date-times:

flights %>% 
  select(year, month, day, hour, minute) %>% 
  mutate(departure = make_datetime(year, month, day, hour, minute))
## # A tibble: 336,776 × 6
##     year month   day  hour minute departure          
##    <int> <int> <int> <dbl>  <dbl> <dttm>             
##  1  2013     1     1     5     15 2013-01-01 05:15:00
##  2  2013     1     1     5     29 2013-01-01 05:29:00
##  3  2013     1     1     5     40 2013-01-01 05:40:00
##  4  2013     1     1     5     45 2013-01-01 05:45:00
##  5  2013     1     1     6      0 2013-01-01 06:00:00
##  6  2013     1     1     5     58 2013-01-01 05:58:00
##  7  2013     1     1     6      0 2013-01-01 06:00:00
##  8  2013     1     1     6      0 2013-01-01 06:00:00
##  9  2013     1     1     6      0 2013-01-01 06:00:00
## 10  2013     1     1     6      0 2013-01-01 06:00:00
## # … with 336,766 more rows
…
# show unabbreviated name
month(x, label = TRUE, abbr = FALSE)
## [1] July      August    September
## 12 Levels: January < February < March < April < May < June < July < August < ... < December

wday(x, label = TRUE, abbr = FALSE)
## [1] Wednesday Saturday  Tuesday  
## Levels: Sunday < Monday < Tuesday < Wednesday < Thursday < Friday < Saturday

This can become handy when you want to perform quick data mining on certain aspects of data. Say we want to get the number of transactions by day for the month of December. By combining lubridate and dplyr functions we can easily filter for December transactions and count the number of transactions for each day.

transactions_sample %>%
   filter(month(transaction_timestamp) == 12) %>%
   count(day(transaction_timestamp))
## # A tibble: 30 × 2
##    `day(transaction_timestamp)`     n
##                           <int> <int>
##  1                            1   207
##  2                            2   258
##  3                            3   327
##  4                            4   201
##  5                            5   218
##  6                            6   195
##  7                            7   181
##  8                            8   189
##  9                            9   228
## 10                           10   272
## # … with 20 more rows
…
Working with durations can be useful when performing data mining as we can perform normal statistical procedures with durations. For example, we can compute the duration between the first and last transaction date for each household to find those households that have been shopping with us the longest.

transactions_sample %>%
   group_by(household_id) %>%
   summarize(
      first_date = min(transaction_timestamp),
      last_date = max(transaction_timestamp)
   ) %>%
   mutate(difference = as.duration(last_date - first_date)) %>%
   arrange(desc(difference))
## # A tibble: 2,377 × 4
##    household_id first_date          last_date           difference              
##    <chr>        <dttm>              <dttm>              <Duration>              
##  1 1378         2017-01-01 14:04:55 2017-12-31 18:07:18 31464143s (~52.02 weeks)
##  2 58           2017-01-01 10:14:16 2017-12-31 12:46:33 31458737s (~52.02 weeks)
##  3 1899         2017-01-01 10:48:12 2017-12-31 11:01:59 31450427s (~52 weeks)   
##  4 2337         2017-01-01 13:33:43 2017-12-31 13:32:48 31449545s (~52 weeks)   
##  5 1130         2017-01-01 10:38:18 2017-12-31 10:35:42 31449444s (~52 weeks)   
##  6 2445         2017-01-01 17:36:15 2017-12-31 17:27:35 31449080s (~52 weeks)   
##  7 290          2017-01-01 16:30:07 2017-12-31 16:14:42 31448675s (~52 weeks)   
##  8 304          2017-01-01 17:45:07 2017-12-31 17:24:25 31448358s (~52 weeks)   
##  9 1563         2017-01-01 16:09:32 2017-12-31 15:23:24 31446832s (~52 weeks)   
## 10 2194         2017-01-01 11:34:53 2017-12-31 09:22:43 31441670s (~51.99 weeks)
## # … with 2,367 more rows
…
This makes for efficient data mining as we do not need to worry about spending time to correctly compute duration periods, we simply use the right duration function of interest. For example, we can build upon the example above and filter our transactions for only those customers that have been shopping with us for at least 25 weeks.

transactions_sample %>%
   group_by(household_id) %>%
   summarize(
      first_date = min(transaction_timestamp),
      last_date = max(transaction_timestamp)
   ) %>%
   mutate(difference = as.duration(last_date - first_date)) %>%
   filter(difference >= dweeks(25))
## # A tibble: 1,996 × 4
##    household_id first_date          last_date           difference              
##    <chr>        <dttm>              <dttm>              <Duration>              
##  1 1            2017-01-07 13:55:24 2017-12-14 10:13:38 29449094s (~48.69 weeks)
##  2 100          2017-02-15 18:38:13 2017-11-17 21:12:00 23769227s (~39.3 weeks) 
##  3 1000         2017-01-04 18:30:59 2017-12-26 17:50:21 30755962s (~50.85 weeks)
##  4 1001         2017-02-09 18:02:42 2017-12-28 13:44:31 27805309s (~45.97 weeks)
##  5 1002         2017-03-16 12:39:10 2017-12-24 13:09:28 24456618s (~40.44 weeks)
##  6 1003         2017-03-05 17:17:40 2017-12-02 09:37:27 23473187s (~38.81 weeks)
##  7 1004         2017-01-21 01:50:10 2017-12-26 20:51:39 29358089s (~48.54 weeks)
##  8 1005         2017-01-04 18:18:18 2017-12-17 14:27:52 29966974s (~49.55 weeks)
##  9 1007         2017-01-14 20:33:42 2017-10-17 22:59:46 23851564s (~39.44 weeks)
## 10 1008         2017-03-15 06:40:12 2017-12-03 08:56:03 22734951s (~37.59 weeks)
## # … with 1,986 more rows
…
