12 Lesson 3c: Tidy data | Data Wrangling with R
…
There are times when our data is considered “wide” or “unstacked” and a common attribute/variable of concern is spread out across columns. To reformat the data such that these common attributes are gathered together as a single variable, the pivot_longer() function will take multiple columns and collapse them into key-value pairs, duplicating all other columns as needed.

For example, let’s say we have the given data frame.

(untidy1 <- readr::read_csv("data/untidy1.csv"))
## Rows: 3144 Columns: 5
## ── Column specification ─────────────────
## Delimiter: ","
## chr (1): prod_desc
## dbl (4): hshd_id, Mar, Apr, May
## 
## ℹ Use `spec()` to retrieve the full column specification for this data.
## ℹ Specify the column types or set `show_col_types = FALSE` to quiet this message.
## # A tibble: 3,144 × 5
##       hshd_id prod_desc   Mar   Apr   May
##         <dbl> <chr>     <dbl> <dbl> <dbl>
##  1 3376002291 HNTS MEA…  1     0     0   
##  2 3376163223 RAGU SPI…  1.89  0     0   
##  3 3376542041 HMK CARD…  0     0     5.29
##  4 3377032853 HMK CARD…  3.99  0     0   
##  5 3377032853 MZTA MAR…  8.78  0     0   
##  6 3377285583 HMK CARD…  0     2     0   
##  7 3377285583 HMK CARD…  0     0     4.99
##  8 3377285583 HMK CARD…  0     3.99  0   
##  9 3377285583 HMK CARD…  0     2.99  7.99
## 10 3377285583 SLV PLT …  8.97  0     0   
## # ℹ 3,134 more rows

This data is considered untidy in the wide sense since the month variable is structured such that each month represents a variable. If we wanted to compute the total amount each household spent by month, this data set does not provide a convenient shape to work with. To re-structure the month component as an individual variable, we can pivot this data to be longer such that each month is within one column variable and the values associated with each month in a second column variable.

untidy1 %>%
   pivot_longer(cols = Mar:May, names_to = "month", values_to = "net_spend_amt")
## # A tibble: 9,432 × 4
##     hshd_id prod_desc month net_spend_amt
##       <dbl> <chr>     <chr>         <dbl>
##  1   3.38e9 HNTS MEA… Mar            1   
##  2   3.38e9 HNTS MEA… Apr            0   
##  3   3.38e9 HNTS MEA… May            0   
##  4   3.38e9 RAGU SPI… Mar            1.89
##  5   3.38e9 RAGU SPI… Apr            0   
##  6   3.38e9 RAGU SPI… May            0   
##  7   3.38e9 HMK CARD… Mar            0   
##  8   3.38e9 HMK CARD… Apr            0   
##  9   3.38e9 HMK CARD… May            5.29
## 10   3.38e9 HMK CARD… Mar            3.99
## # ℹ 9,422 more rows

This new structure allows us to perform follow-on analysis in a much easier fashion. For example, if we wanted to compute the total amount each household spent by month, we could simply do the following sequence:

untidy1 %>%
   pivot_longer(cols = Mar:May, names_to = "month", values_to = "net_spend_amt") %>%
   group_by(hshd_id, month) %>%
   summarize(monthly_spend = sum(net_spend_amt))
## # A tibble: 3,708 × 3
## # Groups:   hshd_id [1,236]
##       hshd_id month monthly_spend
##         <dbl> <chr>         <dbl>
##  1 3376002291 Apr            0   
##  2 3376002291 Mar            1   
##  3 3376002291 May            0   
##  4 3376163223 Apr            0   
##  5 3376163223 Mar            1.89
##  6 3376163223 May            0   
##  7 3376542041 Apr            0   
##  8 3376542041 Mar            0   
##  9 3376542041 May            5.29
## 10 3377032853 Apr            0   
## # ℹ 3,698 more rows
…
12.4 Making long data wider

There are also times when we are required to turn long formatted data into wide formatted data – in other words, we want to pivot data to be wider. As a complement to pivot_longer, the pivot_wider function spreads a key-value pair across multiple columns. For example, the given data frame captures total household purchases for each product along with the household’s shopping habit (Premium Loyal, Valuable, etc.).

(untidy2 <- readr::read_csv("data/untidy2.csv"))
## Rows: 1536 Columns: 4
## ── Column specification ─────────────────
## Delimiter: ","
## chr (2): shabit, prod_merch_l20_desc
## dbl (2): hshd_id, net_spend_amt
## 
## ℹ Use `spec()` to retrieve the full column specification for this data.
## ℹ Specify the column types or set `show_col_types = FALSE` to quiet this message.
## # A tibble: 1,536 × 4
##       hshd_id shabit  prod_merch_l20_desc
##         <dbl> <chr>   <chr>              
##  1 3376002291 Valuab… PASTA & PIZZA SAUCE
##  2 3376163223 Premiu… PASTA & PIZZA SAUCE
##  3 3376542041 Potent… GREETING CARDS     
##  4 3377032853 Uncomm… GREETING CARDS     
##  5 3377032853 Uncomm… PASTA & PIZZA SAUCE
##  6 3377285583 Premiu… GREETING CARDS     
##  7 3377285583 Premiu… PASTA & PIZZA SAUCE
##  8 3377528247 Valuab… GREETING CARDS     
##  9 3378020265 Valuab… GREETING CARDS     
## 10 3379767653 Uncomm… GREETING CARDS     
## # ℹ 1,526 more rows
## # ℹ 1 more variable: net_spend_amt <dbl>

Currently, this data set is in a tidy format. But say we wanted to perform a classification model where we try to use the amount spent on each product to predict the shopping habit of each household, we would need to reorganize the data to make it compatible with future algorithms. To address this, we would need to pivot this data such that each product as its own variable with the total dollar amount spent on each product as the values. In essence, we are transposing the values in prod_merch_l20_desc to be the new variable names (aka key) and then adding the values in net_spend_amt to be the value under each variable name.

untidy2 %>%
   pivot_wider(names_from = prod_merch_l20_desc, values_from = net_spend_amt)
## # A tibble: 1,236 × 5
##      hshd_id shabit `PASTA & PIZZA SAUCE`
##        <dbl> <chr>                  <dbl>
##  1    3.38e9 Valua…                  1   
##  2    3.38e9 Premi…                  1.89
##  3    3.38e9 Poten…                 NA   
##  4    3.38e9 Uncom…                  8.78
##  5    3.38e9 Premi…                 11.4 
##  6    3.38e9 Valua…                 NA   
##  7    3.38e9 Valua…                 NA   
##  8    3.38e9 Uncom…                  2.19
##  9    3.38e9 Premi…                  1.49
## 10    3.38e9 Uncom…                 NA   
## # ℹ 1,226 more rows
## # ℹ 2 more variables:
## #   `GREETING CARDS` <dbl>,
## #   `NF SHORTENING AND OIL` <dbl>

This results in each household (hshd_id) having its own observation. You probably notice that there are now a lot of missing values which causes NA to be populated. If you were to apply this data to one of the many machine learning algorithms, you would likely run into errors due to the NAs. In this example, we could replace those NAs with zeros using values_fill = 0, since the household did not purchase any of those products.

untidy2 %>%
   pivot_wider(names_from = prod_merch_l20_desc, values_from = net_spend_amt, values_fill = 0)
## # A tibble: 1,236 × 5
##      hshd_id shabit `PASTA & PIZZA SAUCE`
##        <dbl> <chr>                  <dbl>
##  1    3.38e9 Valua…                  1   
##  2    3.38e9 Premi…                  1.89
##  3    3.38e9 Poten…                  0   
##  4    3.38e9 Uncom…                  8.78
##  5    3.38e9 Premi…                 11.4 
##  6    3.38e9 Valua…                  0   
##  7    3.38e9 Valua…                  0   
##  8    3.38e9 Uncom…                  2.19
##  9    3.38e9 Premi…                  1.49
## 10    3.38e9 Uncom…                  0   
## # ℹ 1,226 more rows
## # ℹ 2 more variables:
## #   `GREETING CARDS` <dbl>,
## #   `NF SHORTENING AND OIL` <dbl>
…
12.5 Separate one variable into multiple

Many times a single column variable will capture multiple variables, or even parts of a variable you just don’t care about. This is exemplified in the following untidy3 data frame. Here, the product variable combines two variables, the product category (i.e. greeting cards, Pasta & pizza sauce) along with the product description (i.e. graduation cards, birthday cards). For many reasons (summary statistics, visualization, modeling) we would likely want to separate these parts into their own variables.

(untidy3 <- readr::read_csv("data/untidy3.csv"))
## Rows: 3884 Columns: 4
## ── Column specification ─────────────────
## Delimiter: ","
## chr (2): shabit, product
## dbl (2): hshd_id, net_spend_amt
## 
## ℹ Use `spec()` to retrieve the full column specification for this data.
## ℹ Specify the column types or set `show_col_types = FALSE` to quiet this message.
## # A tibble: 3,884 × 4
##      hshd_id shabit net_spend_amt product
##        <dbl> <chr>          <dbl> <chr>  
##  1    8.61e9 Premi…          0.99 GREETI…
##  2    8.61e9 Premi…          0.99 GREETI…
##  3    3.48e9 Premi…          1.89 GREETI…
##  4    3.48e9 Premi…          1.89 GREETI…
##  5    3.48e9 Premi…          1.89 GREETI…
##  6    3.48e9 Premi…          1.89 GREETI…
##  7    5.00e9 Uncom…          1.89 GREETI…
##  8    5.00e9 Uncom…          1.89 GREETI…
##  9    5.00e9 Uncom…          1.89 GREETI…
## 10    8.61e9 Premi…          1.49 GREETI…
## # ℹ 3,874 more rows

This can be accomplished using the separate function which separates a single column into multiple columns based on a separator. Additional arguments provide some flexibility with separating columns.

# separate product column into two variables named "prod_category" & "prod_desc"
untidy3 %>% 
   separate(col = product, into = c("prod_category", "prod_desc"), sep = ": ")
## # A tibble: 3,884 × 5
##       hshd_id shabit        net_spend_amt
##         <dbl> <chr>                 <dbl>
##  1 8614328969 Premium Loyal          0.99
##  2 8614328969 Premium Loyal          0.99
##  3 3479082131 Premium Loyal          1.89
##  4 3479082131 Premium Loyal          1.89
##  5 3479082131 Premium Loyal          1.89
##  6 3479082131 Premium Loyal          1.89
##  7 5003651017 Uncommitted            1.89
##  8 5003651017 Uncommitted            1.89
##  9 5003651017 Uncommitted            1.89
## 10 8614328969 Premium Loyal          1.49
## # ℹ 3,874 more rows
## # ℹ 2 more variables:
## #   prod_category <chr>, prod_desc <chr>

The default separator is any non alpha-numeric character. In this
example there are two: white space ” “ and colon
: so we need to specify. You can also keep the original
column that you are separating by including
remove = FALSE.

You can also pass a vector of integers to sep and separate() will interpret the integers as positions to split at. For example, say our household ID (hshd_id) value actually represents the the household and user. So, let’s say the first 7 digits is the household identifier and the last 3 digits is the user identifier. We can split this into two new variables with the following:

untidy3 %>% 
   separate(hshd_id, into = c("hshd_id", "member_id"), sep = 7)
## # A tibble: 3,884 × 5
##    hshd_id member_id shabit net_spend_amt
##    <chr>   <chr>     <chr>          <dbl>
##  1 8614328 969       Premi…          0.99
##  2 8614328 969       Premi…          0.99
##  3 3479082 131       Premi…          1.89
##  4 3479082 131       Premi…          1.89
##  5 3479082 131       Premi…          1.89
##  6 3479082 131       Premi…          1.89
##  7 5003651 017       Uncom…          1.89
##  8 5003651 017       Uncom…          1.89
##  9 5003651 017       Uncom…          1.89
## 10 8614328 969       Premi…          1.49
## # ℹ 3,874 more rows
## # ℹ 1 more variable: product <chr>
…
12.6 Combine multiple variables into one

Similarly, there are times when we would like to combine the values of two variables. As a compliment to separate, the unite function is a convenient function to paste together multiple variable values into one. Consider the following data frame that has separate date variables. To perform time series analysis or for visualizations we may desire to have a single date column.

(untidy4 <- readr::read_csv("data/untidy4.csv"))
## Rows: 3884 Columns: 7
## ── Column specification ─────────────────
## Delimiter: ","
## chr (2): shabit, prod_desc
## dbl (5): hshd_id, net_spend_amt, year...
## 
## ℹ Use `spec()` to retrieve the full column specification for this data.
## ℹ Specify the column types or set `show_col_types = FALSE` to quiet this message.
## # A tibble: 3,884 × 7
##    hshd_id shabit net_spend_amt prod_desc
##      <dbl> <chr>          <dbl> <chr>    
##  1  8.61e9 Premi…          0.99 CREPE    
##  2  8.61e9 Premi…          0.99 CREPE    
##  3  3.48e9 Premi…          1.89 CREPE    
##  4  3.48e9 Premi…          1.89 CREPE    
##  5  3.48e9 Premi…          1.89 CREPE    
##  6  3.48e9 Premi…          1.89 CREPE    
##  7  5.00e9 Uncom…          1.89 CREPE    
##  8  5.00e9 Uncom…          1.89 CREPE    
##  9  5.00e9 Uncom…          1.89 CREPE    
## 10  8.61e9 Premi…          1.49 BALLOONS 
## # ℹ 3,874 more rows
## # ℹ 3 more variables: year <dbl>,
## #   month <dbl>, day <dbl>

We can accomplish this by uniting these columns into one variable with unite.

untidy4 %>% unite(col = "date", year:day, sep = "-")
## # A tibble: 3,884 × 5
##    hshd_id shabit net_spend_amt prod_desc
##      <dbl> <chr>          <dbl> <chr>    
##  1  8.61e9 Premi…          0.99 CREPE    
##  2  8.61e9 Premi…          0.99 CREPE    
##  3  3.48e9 Premi…          1.89 CREPE    
##  4  3.48e9 Premi…          1.89 CREPE    
##  5  3.48e9 Premi…          1.89 CREPE    
##  6  3.48e9 Premi…          1.89 CREPE    
##  7  5.00e9 Uncom…          1.89 CREPE    
##  8  5.00e9 Uncom…          1.89 CREPE    
##  9  5.00e9 Uncom…          1.89 CREPE    
## 10  8.61e9 Premi…          1.49 BALLOONS 
## # ℹ 3,874 more rows
## # ℹ 1 more variable: date <chr>
…
In this case, a tidy data set should result in columns of Dept, Unit, Year, Quarter, and Cost. Furthermore, we want to fill in the year column where NAs currently exist. And we’ll assume that we know the missing value that exists in the Q2 column, and we’d like to update it.

a_mess %>%
  fill(Year) %>%
  pivot_longer(cols = Q1:Q4, names_to = "Quarter", values_to = "Cost") %>%
  separate(Dep_Unt, into = c("Dept", "Unit")) %>%
  replace_na(replace = list(Cost = 17))
## # A tibble: 32 × 5
##    Dept  Unit   Year Quarter  Cost
##    <chr> <chr> <int> <chr>   <int>
##  1 A     1      2006 Q1         15
##  2 A     1      2006 Q2         17
##  3 A     1      2006 Q3         19
##  4 A     1      2006 Q4         17
##  5 B     1      2006 Q1         12
##  6 B     1      2006 Q2         13
##  7 B     1      2006 Q3         27
##  8 B     1      2006 Q4         23
##  9 A     2      2006 Q1         22
## 10 A     2      2006 Q2         22
## # ℹ 22 more rows
…
