8 Lesson 2c: Importing data | Data Wrangling with R
…
ames <- read_csv('data/ames_raw.csv')
## Rows: 2930 Columns: 82
## ── Column specification ───────────────────────────────────────────────
## Delimiter: ","
## chr (45): PID, MS SubClass, MS Zoning, Street, Alley, Lot Shape, La...
## dbl (37): Order, Lot Frontage, Lot Area, Overall Qual, Overall Cond...
## 
## ℹ Use `spec()` to retrieve the full column specification for this data.
## ℹ Specify the column types or set `show_col_types = FALSE` to quiet this message.

We can look at it in our notebook or console and we see that it is displayed in a well-organized, concise manner. More on this in a second.

ames
## # A tibble: 2,930 × 82
##    Order PID        `MS SubClass` `MS Zoning` `Lot Frontage` `Lot Area`
##    <dbl> <chr>      <chr>         <chr>                <dbl>      <dbl>
##  1     1 0526301100 020           RL                     141      31770
##  2     2 0526350040 020           RH                      80      11622
##  3     3 0526351010 020           RL                      81      14267
##  4     4 0526353030 020           RL                      93      11160
##  5     5 0527105010 060           RL                      74      13830
##  6     6 0527105030 060           RL                      78       9978
##  7     7 0527127150 120           RL                      41       4920
##  8     8 0527145080 120           RL                      43       5005
##  9     9 0527146030 120           RL                      39       5389
## 10    10 0527162130 060           RL                      60       7500
## # ℹ 2,920 more rows
## # ℹ 76 more variables: Street <chr>, Alley <chr>, `Lot Shape` <chr>,
## #   `Land Contour` <chr>, Utilities <chr>, `Lot Config` <chr>,
## #   `Land Slope` <chr>, Neighborhood <chr>, `Condition 1` <chr>,
## #   `Condition 2` <chr>, `Bldg Type` <chr>, `House Style` <chr>,
## #   `Overall Qual` <dbl>, `Overall Cond` <dbl>, `Year Built` <dbl>,
## #   `Year Remod/Add` <dbl>, `Roof Style` <chr>, `Roof Matl` <chr>, …
…
8.3.1 Tibbles

Tibbles are data frames, but they tweak some older behaviors of data frames to make life a little easier. There are two main differences in the usage of a tibble vs. a classic data frame: printing and subsetting.

Tibbles have a refined print method that shows only the first 10 rows, and all the columns that fit on your screen. This makes it much easier to work with large data. We can see this difference with the following:

# printed output of a tibble
ames
## # A tibble: 2,930 × 82
##    Order PID        `MS SubClass` `MS Zoning` `Lot Frontage` `Lot Area`
##    <dbl> <chr>      <chr>         <chr>                <dbl>      <dbl>
##  1     1 0526301100 020           RL                     141      31770
##  2     2 0526350040 020           RH                      80      11622
##  3     3 0526351010 020           RL                      81      14267
##  4     4 0526353030 020           RL                      93      11160
##  5     5 0527105010 060           RL                      74      13830
##  6     6 0527105030 060           RL                      78       9978
##  7     7 0527127150 120           RL                      41       4920
##  8     8 0527145080 120           RL                      43       5005
##  9     9 0527146030 120           RL                      39       5389
## 10    10 0527162130 060           RL                      60       7500
## # ℹ 2,920 more rows
## # ℹ 76 more variables: Street <chr>, Alley <chr>, `Lot Shape` <chr>,
## #   `Land Contour` <chr>, Utilities <chr>, `Lot Config` <chr>,
## #   `Land Slope` <chr>, Neighborhood <chr>, `Condition 1` <chr>,
## #   `Condition 2` <chr>, `Bldg Type` <chr>, `House Style` <chr>,
## #   `Overall Qual` <dbl>, `Overall Cond` <dbl>, `Year Built` <dbl>,
## #   `Year Remod/Add` <dbl>, `Roof Style` <chr>, `Roof Matl` <chr>, …
…
To illustrate, we’ll import so mock grocery store products data located in a products.xlsx file.

To read in Excel data you will use the excel_sheets() functions. This allows you to read the names of the different worksheets in the Excel workbook and identify the specific worksheet of interest and then specify that in read_excel.

library(readxl)

excel_sheets('data/products.xlsx')
## [1] "metadata"      "products data" "grocery list"

If you don’t explicitly specify a sheet then the first worksheet will
be imported.

products <- read_excel('data/products.xlsx', sheet = 'products data')
products
## # A tibble: 151,141 × 5
##    product_num department commodity brand_ty x5   
##          <dbl> <chr>      <chr>     <chr>    <chr>
##  1       92993 NON-FOOD   PET       PRIVATE  N    
##  2       93924 NON-FOOD   PET       PRIVATE  N    
##  3       94272 NON-FOOD   PET       PRIVATE  N    
##  4       94299 NON-FOOD   PET       PRIVATE  N    
##  5       94594 NON-FOOD   PET       PRIVATE  N    
##  6       94606 NON-FOOD   PET       PRIVATE  N    
##  7       94613 NON-FOOD   PET       PRIVATE  N    
##  8       95625 NON-FOOD   PET       PRIVATE  N    
##  9       96152 NON-FOOD   PET       PRIVATE  N    
## 10       96153 NON-FOOD   PET       PRIVATE  N    
## # ℹ 151,131 more rows
…
