14 Lesson 4a: Relational data | Data Wrangling with R
…
First, let’s get the common key:

intersect(colnames(transactions_sample), colnames(products))
## [1] "product_id"

This aligns to the data dictionary so we can trust this is the accurate common key. We can now perform a left join using product_id as the common key:

Like mutate(), the join functions add variables to the
right, so if you have a lot of variables already, the new variables
won’t get printed out. You can also use View() on the
output to show the resulting table in a spreadsheet like view.

transactions_sample %>%
   left_join(products, by = "product_id")
## # A tibble: 75,000 × 17
##    household_id store_id basket_id   product_id quantity sales_…¹ retai…² coupo…³ coupo…⁴  week
##    <chr>        <chr>    <chr>       <chr>         <dbl>    <dbl>   <dbl>   <dbl>   <dbl> <int>
##  1 2261         309      31625220889 940996            1     3.86    0.43       0       0     5
##  2 2131         368      32053127496 873902            1     1.59    0.9        0       0    10
##  3 511          316      32445856036 847901            1     1       0.69       0       0    13
##  4 400          388      31932241118 13094913          2    11.9     2.9        0       0     8
##  5 918          340      32074655895 1085604           1     1.29    0          0       0    10
##  6 718          324      32614612029 883203            1     2.5     0.49       0       0    15
##  7 868          323      32074722463 9884484           1     3.49    0          0       0    10
##  8 1688         450      34850403304 1028715           1     2       1.79       0       0    33
##  9 467          31782    31280745102 896613            2     6.55    4.44       0       0     2
## 10 1947         32004    32744181707 978497            1     3.99    0          0       0    16
## # … with 74,990 more rows, 7 more variables: transaction_timestamp <dttm>,
## #   manufacturer_id <chr>, department <chr>, brand <fct>, product_category <chr>,
## #   product_type <chr>, package_size <chr>, and abbreviated variable names ¹​sales_value,
## #   ²​retail_disc, ³​coupon_disc, ⁴​coupon_match_disc
## # ℹ Use `print(n = ...)` to see more rows, and `colnames()` to see all variable names
…
