13 Lesson 3a: Pipe operator | Data Wrangling with R
…
# provides the various arrange, summarize, etc functions
library(dplyr)

# perform nested functions
arrange(
   summarize(
       group_by(
           filter(df, quantity > 1),
           store_id
          ),
       avg_sales = mean(sales_value)
      ),
   desc(avg_sales)
 )
## # A tibble: 188 × 2
##    store_id avg_sales
##    <chr>        <dbl>
##  1 736           86.0
##  2 197           43.5
##  3 901           43.5
##  4 2903          43  
##  5 476           32.8
##  6 634           25.7
##  7 3149          24.9
##  8 3479          19.6
##  9 656           19.1
## 10 3131          15  
## # … with 178 more rows

This first option is considered a “nested” option such the functions are nested within one another. Historically, this has been the traditional way of integrating code; however, it becomes extremely difficult to read what exactly the code is doing and it also becomes easier to make mistakes when making updates to your code. Although not in violation of the DRY principle6, it definitely violates the basic principle of readability and clarity, which makes communication of your analysis more difficult. To make things more readable, people often move to the following approach…

Multiple Object Option:

a <- filter(df, quantity > 1)
b <- group_by(a, store_id)
c <- summarise(b, avg_sales = mean(sales_value))
d <- arrange(c, desc(avg_sales))
print(d)
## # A tibble: 188 × 2
##    store_id avg_sales
##    <chr>        <dbl>
##  1 736           86.0
##  2 197           43.5
##  3 901           43.5
##  4 2903          43  
##  5 476           32.8
##  6 634           25.7
##  7 3149          24.9
##  8 3479          19.6
##  9 656           19.1
## 10 3131          15  
## # … with 178 more rows

This second option helps in making the data wrangling steps more explicit and obvious but definitely violates the DRY principle. By sequencing multiple functions in this way you are likely saving multiple outputs that are not very informative to you or others; rather, the only reason you save them is to insert them into the next function to eventually get the final output you desire. This inevitably creates unnecessary copies and wrecks havoc on properly managing your objects…basically it results in a global environment charlie foxtrot! To provide the same readability (or even better), we can use %>% to string these arguments together without unnecessary object creation…

%>% Option:

df %>%
  filter(quantity > 1) %>%
  group_by(store_id) %>%
  summarise(avg_sales = mean(sales_value)) %>%
  arrange(desc(avg_sales))
## # A tibble: 188 × 2
##    store_id avg_sales
##    <chr>        <dbl>
##  1 736           86.0
##  2 197           43.5
##  3 901           43.5
##  4 2903          43  
##  5 476           32.8
##  6 634           25.7
##  7 3149          24.9
##  8 3479          19.6
##  9 656           19.1
## 10 3131          15  
## # … with 178 more rows
…
