20 Lesson 5c: Visual data exploration | Data Wrangling with R
…
Relationships between two or more variables.

How missing data behaves throughout a data set.

20.2 Prerequisites

We’ll illustrate the key ideas by primarily focusing on refined Ames housing data provided by the AmesHousing package. We’ll use tidyverse to provide some basic data manipulation capabilities along with ggplot2 for plotting.

# main package required
library(tidyverse)

# data used
ames <- AmesHousing::make_ames()
ames
## # A tibble: 2,930 × 81
##    MS_SubClass      MS_Zoning Lot_Frontage Lot_Area Street Alley Lot_Shape Land_Contour Utilities
##    <fct>            <fct>            <dbl>    <int> <fct>  <fct> <fct>     <fct>        <fct>    
##  1 One_Story_1946_… Resident…          141    31770 Pave   No_A… Slightly… Lvl          AllPub   
##  2 One_Story_1946_… Resident…           80    11622 Pave   No_A… Regular   Lvl          AllPub   
##  3 One_Story_1946_… Resident…           81    14267 Pave   No_A… Slightly… Lvl          AllPub   
##  4 One_Story_1946_… Resident…           93    11160 Pave   No_A… Regular   Lvl          AllPub   
##  5 Two_Story_1946_… Resident…           74    13830 Pave   No_A… Slightly… Lvl          AllPub   
##  6 Two_Story_1946_… Resident…           78     9978 Pave   No_A… Slightly… Lvl          AllPub   
##  7 One_Story_PUD_1… Resident…           41     4920 Pave   No_A… Regular   Lvl          AllPub   
##  8 One_Story_PUD_1… Resident…           43     5005 Pave   No_A… Slightly… HLS          AllPub   
##  9 One_Story_PUD_1… Resident…           39     5389 Pave   No_A… Slightly… Lvl          AllPub   
## 10 Two_Story_1946_… Resident…           60     7500 Pave   No_A… Regular   Lvl          AllPub   
## # … with 2,920 more rows, and 72 more variables: Lot_Config <fct>, Land_Slope <fct>,
## #   Neighborhood <fct>, Condition_1 <fct>, Condition_2 <fct>, Bldg_Type <fct>,
## #   House_Style <fct>, Overall_Qual <fct>, Overall_Cond <fct>, Year_Built <int>,
## #   Year_Remod_Add <int>, Roof_Style <fct>, Roof_Matl <fct>, Exterior_1st <fct>,
## #   Exterior_2nd <fct>, Mas_Vnr_Type <fct>, Mas_Vnr_Area <dbl>, Exter_Qual <fct>,
## #   Exter_Cond <fct>, Foundation <fct>, Bsmt_Qual <fct>, Bsmt_Cond <fct>, Bsmt_Exposure <fct>,
## #   BsmtFin_Type_1 <fct>, BsmtFin_SF_1 <dbl>, BsmtFin_Type_2 <fct>, BsmtFin_SF_2 <dbl>, …
…
The most common value of Sale_Price (i.e., the statistical mode) is $135,000 (this is roughly where the peak of each histogram occurs). R does not have a built-in function for finding the most common value in a set of observations, but we can easily find it using a combination of which.max() and table().

which.max(table(ames$Sale_Price))
## 135000 
##    270

We can also find the most frequent bin by combining cut_width (cut_interval and cut_number are additional options) with count. We see that the most frequent bin when using increments of $5,000 is $128,000 - $132,000.

ames %>%
  count(cut_width(Sale_Price, width = 5000)) %>%
  arrange(desc(n))
## # A tibble: 106 × 2
##    `cut_width(Sale_Price, width = 5000)`     n
##    <fct>                                 <int>
##  1 (1.28e+05,1.32e+05]                     137
##  2 (1.42e+05,1.48e+05]                     130
##  3 (1.32e+05,1.38e+05]                     125
##  4 (1.38e+05,1.42e+05]                     125
##  5 (1.22e+05,1.28e+05]                     118
##  6 (1.52e+05,1.58e+05]                     103
##  7 (1.48e+05,1.52e+05]                     101
##  8 (1.18e+05,1.22e+05]                      99
##  9 (1.58e+05,1.62e+05]                      92
## 10 (1.72e+05,1.78e+05]                      92
## # … with 96 more rows
…
This makes it clear that some neighborhoods have minimal representation (i.e. Green Hills, Landmark). And we can always verify this numerically.

ames %>%  
   count(Neighborhood) %>%
   mutate(pct = n / sum(n)) %>%
   arrange(pct)
## # A tibble: 28 × 3
##    Neighborhood            n      pct
##    <fct>               <int>    <dbl>
##  1 Landmark                1 0.000341
##  2 Green_Hills             2 0.000683
##  3 Greens                  8 0.00273 
##  4 Blueste                10 0.00341 
##  5 Northpark_Villa        23 0.00785 
##  6 Veenker                24 0.00819 
##  7 Bloomington_Heights    28 0.00956 
##  8 Briardale              30 0.0102  
##  9 Meadow_Village         37 0.0126  
## 10 Clear_Creek            44 0.0150  
## # … with 18 more rows
…
Digging a little deeper into these variables, we might notice that Garage_Cars and Garage_Area contain the value 0 whenever the other Garage_xx variables have missing values (i.e. a value of NA). This might be because they did not have a way to identify houses with no garages when the data were originally collected; and therefore, all houses with no garage were identified by including nothing. Since this missingness is informative, it would be appropriate to impute NA with a new category level (e.g., "None") for these garage variables. Circumstances like this tend to only arise upon careful descriptive and visual examination of the data!

ames_raw %>% 
  filter(is.na(`Garage Type`)) %>% 
  select(contains("garage"))
## # A tibble: 157 × 7
##    `Garage Type` `Garage Yr Blt` `Garage Finish` `Garage Cars` `Garage Area` `Garage Qual`
##    <chr>                   <int> <chr>                   <int>         <int> <chr>        
##  1 <NA>                       NA <NA>                        0             0 <NA>         
##  2 <NA>                       NA <NA>                        0             0 <NA>         
##  3 <NA>                       NA <NA>                        0             0 <NA>         
##  4 <NA>                       NA <NA>                        0             0 <NA>         
##  5 <NA>                       NA <NA>                        0             0 <NA>         
##  6 <NA>                       NA <NA>                        0             0 <NA>         
##  7 <NA>                       NA <NA>                        0             0 <NA>         
##  8 <NA>                       NA <NA>                        0             0 <NA>         
##  9 <NA>                       NA <NA>                        0             0 <NA>         
## 10 <NA>                       NA <NA>                        0             0 <NA>         
## # … with 147 more rows, and 1 more variable: `Garage Cond` <chr>
…
