24 Lesson 5b: Handling factors | Data Wrangling with R
…
24.3.3 Ordinal factors

Sometimes factors will be ordinal. You will notice this by the <ord> description in a tibble:

demographics
## # A tibble: 801 × 8
##    household_id age   income    home_ownership marital_status household_size household_comp  
##    <chr>        <ord> <ord>     <ord>          <ord>          <ord>          <ord>           
##  1 1            65+   35-49K    Homeowner      Married        2              2 Adults No Kids
##  2 1001         45-54 50-74K    Homeowner      Unmarried      1              1 Adult No Kids 
##  3 1003         35-44 25-34K    <NA>           Unmarried      1              1 Adult No Kids 
##  4 1004         25-34 15-24K    <NA>           Unmarried      1              1 Adult No Kids 
##  5 101          45-54 Under 15K Homeowner      Married        4              2 Adults Kids   
##  6 1012         35-44 35-49K    <NA>           Married        5+             2 Adults Kids   
##  7 1014         45-54 15-24K    <NA>           Married        4              2 Adults Kids   
##  8 1015         45-54 50-74K    Homeowner      Unmarried      1              1 Adult No Kids 
##  9 1018         45-54 35-49K    Homeowner      Married        5+             2 Adults Kids   
## 10 1020         45-54 25-34K    Homeowner      Married        2              2 Adults No Kids
## # … with 791 more rows, and 1 more variable: kids_count <ord>
…
Create a bar plot for the age variable in the
demographics data.

Now create a bar plot where the bars are ordered based on the count
of observations and not the original factor level order.

24.5 Modifying factor levels

Sometimes you need to do more than just reorder factors. This may include recoding values, combining different levels, and dropping unused levels.

Consider our total sales by department. Let’s coerce our department’s to a factor.

spend_by_dept <- mutate(spend_by_dept, department = factor(department))
spend_by_dept
## # A tibble: 26 × 2
##    department      total_spend
##    <fct>                 <dbl>
##  1 AUTOMOTIVE             12.6
##  2 CHEF SHOPPE            73.9
##  3 CNTRL/STORE SUP         1  
##  4 COSMETICS            1087. 
##  5 COUPON                 30.2
##  6 DELI                 7838. 
##  7 DRUG GM             29563. 
##  8 FLORAL               1231. 
##  9 FROZEN GROCERY         14.8
## 10 FUEL                16529. 
## # … with 16 more rows
…
fct_recode will leave levels that aren’t explicitly
mentioned as is, and will warn you if you accidentally refer to a level
that doesn’t exist.

To combine groups, you can assign multiple old levels to the same new level:

spend_by_dept %>%
   mutate(department = fct_recode(
      department,
      "MEAT & SEAFOOD" = "MEAT",
      "MEAT & SEAFOOD" = "SEAFOOD"
      ))
## # A tibble: 26 × 2
##    department      total_spend
##    <fct>                 <dbl>
##  1 AUTOMOTIVE             12.6
##  2 CHEF SHOPPE            73.9
##  3 CNTRL/STORE SUP         1  
##  4 COSMETICS            1087. 
##  5 COUPON                 30.2
##  6 DELI                 7838. 
##  7 DRUG GM             29563. 
##  8 FLORAL               1231. 
##  9 FROZEN GROCERY         14.8
## 10 FUEL                16529. 
## # … with 16 more rows

If you want to collapse a lot of levels, fct_collapse is a useful variant of fct_recode. For each new variable, you can provide a vector of old levels.

spend_by_dept %>%
   mutate(department = fct_collapse(
      department,
      "MEAT & SEAFOOD" = c("MEAT", "MEAT-PCKGD", "SEAFOOD", "SEAFOOD-PCKGD")
      ))
## # A tibble: 26 × 2
##    department      total_spend
##    <fct>                 <dbl>
##  1 AUTOMOTIVE             12.6
##  2 CHEF SHOPPE            73.9
##  3 CNTRL/STORE SUP         1  
##  4 COSMETICS            1087. 
##  5 COUPON                 30.2
##  6 DELI                 7838. 
##  7 DRUG GM             29563. 
##  8 FLORAL               1231. 
##  9 FROZEN GROCERY         14.8
## 10 FUEL                16529. 
## # … with 16 more rows
…
