27 Lesson 7b: Feature engineering | Data Wrangling with R
…
# one-hot encode
ohe <- ames_recipe %>%
  step_dummy(all_nominal(), one_hot = TRUE)

# dummy encode
de <- ames_recipe %>%
  step_dummy(all_nominal(), one_hot = FALSE)

27.6.2 Ordinal encoding

If a categorical feature is naturally ordered then numerically encoding the feature based on its order is a natural choice (most commonly referred to as ordinal encoding). For example, the various quality features in the Ames housing data are ordinal in nature (ranging from Very_Poor to Very_Excellent).

train %>% select(matches('Qual$|QC$|_Cond$'))
## # A tibble: 2,051 × 11
##    Overall_Qual  Overall_Cond Exter_Qual Exter_Cond Bsmt_Qual Bsmt_Cond
##    <fct>         <fct>        <fct>      <fct>      <fct>     <fct>    
##  1 Very_Good     Average      Good       Typical    Good      Good     
##  2 Above_Average Average      Good       Typical    Good      Typical  
##  3 Below_Average Average      Typical    Typical    Good      Typical  
##  4 Very_Good     Average      Good       Typical    Good      Typical  
##  5 Above_Average Good         Typical    Typical    Typical   Good     
##  6 Good          Average      Good       Typical    Good      Typical  
##  7 Above_Average Average      Typical    Typical    Good      Typical  
##  8 Average       Average      Typical    Typical    Typical   Typical  
##  9 Average       Good         Typical    Typical    Fair      Typical  
## 10 Below_Average Average      Typical    Typical    Typical   Typical  
## # ℹ 2,041 more rows
## # ℹ 5 more variables: Heating_QC <fct>, Kitchen_Qual <fct>,
## #   Garage_Qual <fct>, Garage_Cond <fct>, Pool_QC <fct>
…
Did this work, let’s take a look. If we want to apply a recipe to a data set we can apply:

prep: estimate feature engineering parameters based on training data.

bake: apply the prepped recipe to new data.

We can see that our quality variables are now ordinal encoded.

baked_recipe <- ord_lbl %>%
   prep(training = train) %>%
   bake(new_data = train)

baked_recipe %>% select(matches('Qual$|QC$|_Cond$'))
## # A tibble: 2,051 × 11
##    Overall_Qual Overall_Cond Exter_Qual Exter_Cond Bsmt_Qual Bsmt_Cond
##           <int>        <int>      <int>      <int>     <int>     <int>
##  1            9            6          4          6         4         4
##  2            7            6          4          6         4         7
##  3            5            6          5          6         4         7
##  4            9            6          4          6         4         7
##  5            7            8          5          6         7         4
##  6            8            6          4          6         4         7
##  7            7            6          5          6         4         7
##  8            6            6          5          6         7         7
##  9            6            8          5          6         3         7
## 10            5            6          5          6         7         7
## # ℹ 2,041 more rows
## # ℹ 5 more variables: Heating_QC <int>, Kitchen_Qual <int>,
## #   Garage_Qual <int>, Garage_Cond <int>, Pool_QC <int>
…
27.6.3 Lumping

Sometimes features will contain levels that have very few observations. For example, there are 28 unique neighborhoods represented in the Ames housing data but several of them only have a few observations.

## # A tibble: 28 × 2
##    Neighborhood            n
##    <fct>               <int>
##  1 Green_Hills             1
##  2 Landmark                1
##  3 Greens                  6
##  4 Blueste                 8
##  5 Northpark_Villa        16
##  6 Veenker                18
##  7 Briardale              20
##  8 Bloomington_Heights    22
##  9 Meadow_Village         26
## 10 Clear_Creek            29
## # ℹ 18 more rows
…
